46423
212700
514504
960202
1555614
2305252
3212787
4281323
5513501
6911713
8478069
10214458
12122668
14204239
16460711
18893424
21503684
24292701
27261649
30411565
33743502
37258431
40957284
44840928
48910225
53166033
57609093
62240163
67059989
72069262
77268658
82658834
88240424
94014053
99980286
106139771
112493000
119040563
125782965
132720746
139854415
147184448
154711344
162435566
170357567
178477815
186796723
195314748
204032297
212949767
222067607
231386177
240905876
250627099
260550180
270675514
281003457
291534377
302268614
313206480
324348349
335694535
347245377
359001173
370962268
383128929
395501481
408080253
420865503
433857545
447056669
460463144
474077248
487899275
501929479
516168141
530615505
545271867
560137457
575212542
590497362
605992189
621697247
637612795
653739055
670076256
686624658
703384488
713202150
