1556880
232340
200720
240540
238240
335300
315260
369060
361340
496500
467200
440220
621320
577860
588420
593300
581780
786820
717000
774120
808540
1630080
1057200
1617820
1038400
1036020
984400
1000420
1047780
1365040
1192720
1028320
986020
1028640
1062080
1229040
1065280
1626900
1261780
1126580
1366900
1321000
1277020
1371960
1322780
1443500
1420640
1505560
1737740
2199300
1598760
1726520
1755360
1706980
1778480
1728820
1742220
1723120
2747940
1860900
2112460
2220980
2522540
2420780
2430820
2307640
2276600
2726860
2529260
2144600
2114980
2799820
2291500
3010920
2263240
2343660
2569320
2881700
2475860
2605380
2530820
3067800
2711980
2723400
2812020
3214760
3591320
3139040
2740680
